…
Now further to the E Chan example we will process this data to: - standardise the colnames without any random characters - convert it to the dplyr::tbl\_df format to ease manipulations - convert the date to the R date format - remove any rows that contain dividends (May 08 2017 in this case) - fill the gaps in the data (e.g. weekends)

``` r
# for ease of later use convert to dplyr::tbl_df
hpf_tbl_df <- tbl_df(histPriceFile_df)
hpf_tbl_df
```

    ## # A tibble: 100 x 7
    ##            Date   Open   High    Low `Close*` `Adj Close**`    Volume
    ##           <chr>  <chr>  <chr>  <chr>    <chr>         <chr>     <chr>
    ##  1 Jul 14, 2017 154.01 154.62 153.40   154.24        154.24 3,214,300
    ##  2 Jul 13, 2017 153.70 154.19 153.19   153.63        153.63 2,476,100
    ##  3 Jul 12, 2017 153.48 154.24 153.05   153.70        153.70 3,097,900
    ##  4 Jul 11, 2017 153.26 153.65 152.05   153.19        153.19 3,447,500
    ##  5 Jul 10, 2017 152.91 153.89 152.63   153.42        153.42 3,206,200
    ##  6 Jul 07, 2017 152.62 153.49 152.14   152.94        152.94 2,460,100
    ##  7 Jul 06, 2017 153.36 153.83 152.23   152.36        152.36 2,757,500
    ##  8 Jul 05, 2017 155.77 155.89 153.63   153.67        153.67 3,564,400
    ##  9 Jul 03, 2017 153.58 156.03 153.52   155.58        155.58 2,822,500
    ## 10 Jun 30, 2017 154.28 154.50 153.14   153.83        153.83 3,571,500
    ## # ... with 90 more rows
…
